<?xml version="1.0" standalone="no"?>
<!DOCTYPE svg PUBLIC "-//W3C//DTD SVG 1.1//EN" "http://www.w3.org/Graphics/SVG/1.1/DTD/svg11.dtd" >
<svg xmlns="http://www.w3.org/2000/svg">
<metadata>Generated by IcoMoon</metadata>
<defs>
<font id="consoles" horiz-adv-x="512">
<font-face units-per-em="512" ascent="480" descent="-32" />
<missing-glyph horiz-adv-x="512" />
<glyph unicode="&#x20;" d="" horiz-adv-x="256" />
<glyph unicode="&#xe600;" d="M200.361 427.737c-0.798-2.795-1.198-83.838-0.798-180.449l1.198-175.658 31.938-10.779c17.566-5.589 35.131-10.779 38.724-10.779 6.389-0.399 6.788 11.178 6.788 152.903 0 84.236 1.198 156.097 2.795 159.69 3.193 8.383 11.978 7.984 21.159-1.198 6.788-6.788 7.586-13.973 7.586-74.655 0-67.070 0-67.468 9.183-72.259 12.774-6.788 37.526-6.389 50.702 0.399 36.729 18.764 41.121 102.601 7.586 144.118-19.562 24.354-55.492 40.721-137.732 63.476-27.148 7.186-37.526 8.783-39.124 5.19zM106.941 190.198c-67.070-24.752-85.834-34.334-94.615-47.108-5.19-7.985-4.79-9.582 3.594-18.764 15.569-17.566 54.294-27.946 110.186-29.542l48.705-1.198v43.915l-18.764-7.586c-24.353-9.582-43.516-11.978-60.283-7.586-19.962 5.19-11.577 11.978 37.129 29.143l41.121 14.771 1.597 19.562c1.198 20.76 0.399 27.546-3.993 27.546-1.597-0.399-30.739-10.779-64.674-23.156zM323.719 187.005l-25.151-5.988v-23.953c0-12.774 1.198-23.555 2.396-23.555 1.597 0 19.962 5.988 41.121 13.573 21.159 7.586 44.714 15.57 52.299 17.566 16.368 3.993 41.121-1.198 39.124-8.384-1.198-2.795-31.139-15.969-67.469-29.542l-65.472-24.353-1.198-23.953-1.198-23.555 77.049 27.147c119.767 42.717 130.946 48.305 130.946 67.469 0 13.573-11.978 23.156-41.918 33.934-27.946 9.98-106.991 11.978-140.527 3.594z" />
<glyph unicode="&#xe601;" d="M255.995 470.374c-135.087 0-244.604-109.518-244.604-244.615 0-135.116 109.507-244.615 244.604-244.615 135.116 0 244.615 109.499 244.615 244.614 0 135.097-109.507 244.614-244.614 244.614zM164.119 352.512c21.596 8.831 39.158 12.357 53.821 12.625 0.1 0 0.208 0 0.327 0 8.593 0 16.37-1.012 23.265-2.642 14.413-3.666 35.135-16.102 35.135-16.102v-0.060c-5.94-20.353-23.513-80.641-29.433-100.676-15.466 10.242-32.085 19.638-55.529 19.827-0.268 0-0.526 0-0.795 0-15.119 0-33.108-3.954-55.3-13.033l28.509 100.061zM154.444 140.212c-14.841 0-32.493-3.526-54.356-12.357l28.917 100.289c3.298 1.361 6.517 2.563 9.635 3.685 10.549 3.725 25.569 7.957 42.059 9.298 1.877 0.159 3.745 0.249 5.602 0.249 16.45 0 31.45-5.762 42.237-11.294 4.599-2.483 8.96-5.175 13.292-7.877-3.825-13.113-24-81.991-29.94-102.087-16.023 10.629-32.989 20.096-57.446 20.096zM348.457 102.465c-23.959-9.894-43.111-13.838-59.135-13.838-25.341 0-59.094 20.841-59.036 20.781l28.827 100.15c8.771-7.023 29.105-20.353 62.532-20.353 15.366 0 33.526 2.831 54.615 10.401l-27.804-97.14zM383.771 226.188c-0.079-0.019-0.139-0.039-0.178-0.039 0-0.079 0-0.139 0-0.179-20.235-9.527-38.762-13.331-55.409-13.331-25.202 0-46.122 8.712-62.183 19.44-0.099 0.079-0.228 0.139-0.308 0.228l29.215 101.104c9.259-7.182 30.128-20.661 61.817-20.661 15.943 0 34.569 3.417 55.856 12.685l-28.807-99.246z" />
<glyph unicode="&#xe602;" d="M231.764 459.288c-28.474-2.997-68.563-14.987-83.549-25.103l-10.864-7.12h15.362c18.358-0.374 46.833-13.113 80.552-35.968l24.353-16.86 25.477 16.86c36.717 24.354 56.199 32.596 78.68 32.97 22.106 0.375 21.731 1.873-4.871 14.986-35.218 17.61-80.928 25.103-125.137 20.233zM95.013 393.347c-26.976-17.234-56.574-68.189-67.814-115.772-5.62-24.353-7.12-70.811-3.372-92.916 13.862-74.933 62.569-139.749 130.007-171.97 42.711-20.233 74.558-26.601 120.641-23.603 52.452 3.373 102.657 24.353 141.996 59.571l18.358 16.11-7.868 20.233c-14.611 38.591-52.828 88.046-127.385 165.226l-41.587 43.087-47.582-48.706c-69.312-70.436-124.763-147.617-124.763-172.719 0-3.747-1.124-5.62-2.248-4.122-2.623 2.623-2.249 41.213 0.374 55.825 10.115 53.577 52.828 127.385 112.773 193.699 19.857 22.106 20.233 21.356-14.987 47.582-42.711 32.221-67.439 40.463-86.546 28.474zM372.262 386.978c-23.979-12.365-69.312-46.084-69.312-51.329 0-1.124 4.495-7.12 10.49-13.113 39.714-40.463 86.546-106.404 105.279-147.99 13.488-29.973 18.358-52.452 17.234-82.051l-0.75-23.603 12.365 14.237c14.611 17.234 29.973 48.331 39.339 80.553 9.74 34.469 8.243 101.158-3.747 135.252-16.86 49.081-56.949 101.158-77.18 101.158-4.871 0-19.857-5.996-33.719-13.113z" />
<glyph unicode="&#xe603;" d="M365.844 323.781c-17.404-6.189-23.979-27.846-12.764-40.995 10.442-12.375 24.752-14.309 37.128-4.641 23.979 18.951 4.255 56.078-24.365 45.637zM464.464 324.554c-23.204-8.508-24.752-40.995-2.707-49.89 15.47-6.576 29.779 0 35.194 15.857 3.868 10.442 3.481 13.923-2.707 22.045-8.509 11.215-19.337 15.857-29.779 11.988zM16.61 278.532c5.415-18.178 10.442-36.741 11.603-40.996s9.668-34.807 19.337-67.681c18.564-64.587 25.139-75.415 46.796-78.51 22.819-3.481 31.713 10.442 51.050 80.83 8.895 34.034 17.79 63.814 18.951 66.133 1.547 2.707 9.282-18.951 17.017-48.343 24.364-88.178 27.846-95.139 52.21-98.621 10.054-1.547 14.697 0 23.204 8.896 9.282 8.896 15.857 27.072 38.675 107.902 15.47 53.371 27.846 98.234 27.846 100.168 0 1.933-10.055 3.868-22.819 4.255-26.685 0.774-24.752 3.094-40.995-61.493-5.801-22.432-13.536-53.371-17.79-68.454-3.868-15.47-7.349-29.392-7.735-30.94 0-1.933-8.508 28.619-18.564 66.907-10.054 38.674-21.272 74.642-24.752 80.444-12.375 18.178-37.901 17.404-50.665-2.321-3.094-5.028-12.763-37.514-21.658-72.708-8.895-35.194-17.404-65.36-18.564-67.294-1.547-3.094-19.338 60.332-40.608 145.417-2.707 9.668-3.868 10.055-27.459 10.055l-24.364-0.387 9.282-33.261zM359.269 244.111c-8.509-1.161-8.896-1.547-8.896-76.576v-75.029h23.204c15.857 0 23.204 1.547 23.204 5.028 0.387 7.735 0.387 131.494 0.387 138.455-0.387 6.576-19.724 10.828-37.901 8.121zM453.635 242.564c-3.481-1.547-4.64-22.045-4.255-71.548 0.387-37.901 0.774-71.162 1.161-73.481 0.387-3.481 7.735-5.028 22.819-5.028h22.818v150.059l-18.95 1.547c-10.442 0.387-21.272 0-23.593-1.547z" />
<glyph unicode="&#xe604;" d="M648.535 260.846c0-54.574 64.523-46.769 64.523-8.603v90.333h-64.523v-81.728zM559.639 203.493c0-26.963 18.624-43.016 45.884-43.016h154.856c23 0 41.582 15.88 41.582 38.714v113.274c0 13.761-10.255 28.678-22.942 28.678h-35.847v-93.201c0-70.787-123.312-70.243-123.312-1.434v96.068h-27.243c-17.737 0-32.979-11.238-32.979-28.678v-110.406zM345.29 315.8c0-14.719 12.395-27.114 27.889-27.114 16.269 0 29.050 12.007 29.050 27.114 0 15.106-12.782 27.114-29.050 27.114-15.494 0-27.889-12.007-27.889-27.114zM397.969 106.636v155.324h-48.031v-155.324zM442.512 315.8c0-14.719 12.783-27.114 28.276-27.114 15.88 0 28.663 12.007 28.663 27.114 0 15.106-12.783 27.114-28.663 27.114-15.494 0-28.276-12.007-28.276-27.114zM495.192 106.636v155.324h-48.029v-155.324zM273.632 329.745l-41.834-164.62c0 0-32.15 123.563-37.572 141.38-5.036 17.43-15.88 25.177-30.988 25.177-15.494 0-25.952-7.745-31.375-25.177-5.035-17.818-37.185-141.38-37.185-141.38l-42.22 164.62h-50.355c0 0 48.418-175.466 55.002-195.995 5.035-15.88 17.43-28.664 35.248-28.664 20.916 0 30.6 15.106 34.861 28.664 4.648 13.944 36.024 129.759 36.024 129.759 0 0 31.375-115.815 35.636-129.759 4.648-13.557 14.331-28.664 34.861-28.664 18.204 0 30.213 12.782 35.636 28.664 6.584 20.53 55.002 195.995 55.002 195.995h-50.742z" horiz-adv-x="1332" />
<glyph unicode="&#xe605;" d="M386.735 306.16l-79.491-0.002c-24.519 0-36.525-15.11-36.525-34.784v-59.762c0-12.172-5.758-20.928-17.958-20.928h-69.504c-0.498 0-0.903-0.409-0.903-0.913v-12.006c0-0.5 0.411-0.91 0.916-0.91h78.678c24.514 0 36.522 15.065 36.522 34.734v59.808c0 12.183 5.772 20.957 17.946 20.957h70.32c0.519 0 0.902 0.407 0.902 0.903v11.99c0 0.507-0.409 0.913-0.902 0.913zM152.737 306.147l-152.896 0.011c-0.496 0-0.897-0.41-0.897-0.91v-11.998c0-0.498 0.401-0.905 0.905-0.905h143.714c12.179 0 17.956-8.769 17.956-20.949 0-12.166-5.763-20.93-17.956-20.93h-113.674c-17.657 0-30.946-14.834-30.946-34.506v-38.187c0-0.5 0.406-0.908 0.905-0.908h25.927c0.494 0 0.899 0.406 0.899 0.908v38.187c0 12.179 7.024 20.684 17.093 20.684h108.968c24.524 0 36.525 15.070 36.525 34.726 0 19.659-12.001 34.779-36.525 34.779zM593.341 243.109c-0.394 0.393-0.404 1.065-0.007 1.44 7.595 6.293 11.372 15.823 11.372 26.82 0 19.659-12.009 34.779-36.525 34.779l-152.899 0.011c-0.493 0-0.913-0.409-0.913-0.913v-11.996c0-0.507 0.42-0.905 0.913-0.905h143.717c12.185 0 17.956-8.769 17.956-20.949 0-12.166-5.76-20.93-17.956-20.93h-0.126l-0.038 0.005-143.553-0.016c-0.493 0-0.913-0.41-0.913-0.908v-12.001c0-0.495 0.42-0.903 0.913-0.903h143.727c15.855-0.129 17.937-15.551 17.937-23.449l0.018-1.58c0-12.185-5.782-20.952-17.956-20.952h-143.727c-0.493 0-0.913-0.409-0.913-0.902v-11.997c0-0.5 0.42-0.91 0.913-0.91l152.899 0.005c24.528 0 36.534 16.296 36.534 34.776v1.558c0 11.768-3.796 23.011-11.372 29.916z" horiz-adv-x="603" />
<glyph unicode="&#xe606;" d="M156.187 317.24c9.074 0.163 18.708 0.030 26.799-4.639 0.275 0.005 0.828 0.030 1.104 0.036l-0.082-0.55c2.437-1.267 4.542-3.063 6.597-4.869 0.194-0.217 0.581-0.647 0.774-0.864 1.013-1.2 2.029-2.401 3.042-3.601 0.335-0.619 0.671-1.245 1.013-1.863 0.454-0.687 0.916-1.373 1.387-2.060-0.006-0.188-0.030-0.56-0.036-0.747 0.746-1.424 1.394-2.909 2.111-4.354 0.030-0.524 0.076-1.566 0.103-2.087l0.641 0.066c0.090-1.373 0.194-2.736 0.335-4.109 1.163-4.488 0.538-9.202 0.441-13.779l-0.484 0.007c-0.076-1.357-0.163-2.707-0.245-4.063-0.662-1.766-1.179-3.593-2.005-5.295-0.046-0.224-0.12-0.671-0.157-0.888-0.925-1.663-1.805-3.347-2.714-5.019-1.887-2.558-3.876-5.077-6.435-7.009-1.058-0.732-2.087-1.506-3.093-2.304l-0.194-0.007c-2.171-1.364-4.496-2.498-6.934-3.273l-0.030-0.275c-1.917-0.23-3.75-0.798-5.54-1.46-2.237-0.148-4.488-0.284-6.658-0.864-41.397-0.275-82.802 0.127-124.197-0.202 0.005-0.133 0.016-0.395 0.021-0.529-1.513-0.188-2.996-0.649-4.191-1.626-0.254 0.030-0.753 0.090-1.001 0.118l-0.005-0.88-0.596 0.088c-2.534-2.155-4.503-4.832-6.032-7.768-0.433-1.267-0.864-2.534-1.221-3.832-1.297-5.122-0.849-10.447-0.916-15.68-0.052-11.058 0.090-22.122-0.090-33.18-9.745-0.127-19.483-0.036-29.228-0.046-0.172 13.057-0.021 26.105-0.112 39.161 0.112 3.251-0.157 6.555 0.535 9.751 0.188 0.998 0.357 1.989 0.523 2.99 0.314 1.001 0.626 2.005 0.947 3.006 0.611 1.959 1.446 3.839 2.365 5.673 1.194 2.283 2.64 4.415 4.182 6.471l0.575-0.007-0.188 0.641c0.411 0.291 1.221 0.874 1.633 1.163l-0.098 0.678 0.596-0.218c0.178 0.245 0.538 0.732 0.716 0.976 1.454 1.185 2.924 2.371 4.377 3.565 0.254-0.021 0.746-0.076 1.001-0.097l0.164 0.641c0.843 0.365 1.7 0.732 2.558 1.095 0.956 0.417 1.932 0.813 2.9 1.222 3.184 0.834 6.413 1.7 9.745 1.551 39.278 0.046 78.559 0.006 117.829 0.016 2.512 0.075 5.116-0.291 7.56 0.484 1.179 0.276 2.38 0.524 3.565 0.85 3.929 1.73 7.202 4.832 8.963 8.769 0.538 1.5 1.068 3.005 1.678 4.481 0.106 1.403 0.194 2.812 0.254 4.212 0.133-0.031 0.417-0.090 0.56-0.12-0.007 2.446-0.007 4.892-0.036 7.335l-0.544-0.016c-0.052 1.21-0.133 2.423-0.202 3.625-0.335 0.916-0.662 1.835-0.962 2.758-0.305 0.774-0.641 1.546-0.983 2.298-0.090 0.351-0.284 1.058-0.381 1.409-0.538 0.611-1.053 1.221-1.551 1.851l-0.188 0.082c-0.454 0.619-0.894 1.237-1.333 1.856-0.239 0.142-0.716 0.424-0.956 0.565-1.357 1.17-2.827 2.289-4.675 2.476-0.006 0.202-0.036 0.596-0.052 0.798-1.14 0.112-2.283 0.229-3.399 0.365-0.925 0.291-1.871 0.596-2.842 0.567-51.597 0.031-103.2-0.031-154.798 0.036-0.030 4.802-0.067 9.612 0.046 14.413 52.578 0.052 105.165 0.015 157.746 0.030zM336.969 317.203l-0.031 0.469c29.721-0.127 59.449 0 89.169-0.061 0.596-0.172 1.79-0.498 2.386-0.671-0.087-4.69 0.015-9.38-0.067-14.069-24.389-0.148-48.779 0.016-73.168-0.082-3.974-0.172-8.031 0.469-11.93-0.514-2.431-0.387-4.714-1.313-6.861-2.476-2.661-1.968-4.757-4.593-6.128-7.604-0.439-1.319-0.88-2.64-1.403-3.931-0.118-0.991-0.209-1.983-0.3-2.981-0.731-2.394-0.56-4.913-0.58-7.381 0.021-20.111-0.007-40.219 0.015-60.33-0.046-3.453-0.015-6.933-0.798-10.32l-0.454 0.148c-0.106-1.089-0.209-2.185-0.3-3.281-2.237-6.709-6.084-12.974-11.922-17.111l-0.075-0.508c-0.314 0.021-0.932 0.075-1.237 0.098l-0.046-0.663c-1.194-0.611-2.356-1.261-3.51-1.923-0.708-0.284-1.403-0.58-2.090-0.88-1.149-0.478-2.341-0.865-3.519-1.194l0.106-0.342c-10.423-2.534-21.19-1.609-31.809-1.774-26.149 0.082-52.305-0.158-78.454 0.12-0.066 4.705 0.016 9.41-0.052 14.115l0.774-0.163-0.133 0.798c28.714 0.051 57.427-0.005 86.141 0.031 2.603-0.112 5.101 0.692 7.532 1.558 1.572 0.925 3.050 2.005 4.49 3.148 1.872 1.954 3.184 4.332 4.221 6.815 1.723 4.317 1.409 8.969 1.53 13.51 0.253 1.729 0.26 3.483 0.229 5.219-0.729 4.711-0.005 9.47 0 14.197-0.297 2.476-0.215 4.959 0.031 7.435-0.545 2.461-0.142 4.974-0.224 7.463 0.193 1.723 0.229 3.468 0.193 5.198-0.723 5.957 0.253 11.944-0.082 17.909-0.3 1.729-0.284 3.489 0.075 5.204 0.12 2.014 0.142 4.055 0.692 6.012 0.142 1.104 0.276 2.207 0.411 3.31l0.433-0.021c0.193 1.125 0.425 2.252 0.753 3.347 0.843 2.090 1.805 4.124 2.87 6.114 0.94 1.476 2.005 2.87 3.169 4.191 0.217 0.193 0.656 0.589 0.874 0.789l-0.158 0.299c0.692 0.619 1.394 1.245 2.116 1.851 2.111 1.796 4.302 3.526 6.873 4.614l0.134 0.275c1.708 0.663 3.408 1.358 5.183 1.872 0.005 0.12 0.021 0.357 0.031 0.484 0.753 0.031 2.259 0.090 3.012 0.12l-0.148 0.545c1.163 0.142 2.325 0.291 3.505 0.439 2.803 0.558 5.673 0.594 8.529 0.587zM596.153 316.726c1.708 0.26 3.429 0.499 5.129 0.91 1.006-0.342 2.049-0.589 3.133-0.731 1.186-0.514 2.335-1.134 3.423-1.871 0.178-0.188 0.535-0.566 0.716-0.753 0.649-0.834 1.306-1.692 1.947-2.558 0.327-1.2 0.692-2.386 1.038-3.601 0.106-0.005 0.314-0.021 0.417-0.030 0.365-32.829 0-65.661 0.188-98.489 9.7-0.158 19.401-0.051 29.101-0.067-0.046-0.314-0.12-0.932-0.163-1.245l0.769-0.031c-0.046-4.496-0.015-8.992-0.061-13.488-9.864-0.269-19.73 0.067-29.594-0.178-0.172-4.908-0.005-9.813-0.127-14.719-9.655-0.142-19.312 0.015-28.958-0.075-0.178 0.269-0.538 0.805-0.708 1.074 0.082 4.578 0.188 9.171-0.097 13.748-51.814 0.134-103.618 0-155.433 0.067-2.625 0.007-5.309 0.106-7.635 1.446l-0.701-0.021c-1.425 1.094-2.476 2.543-3.356 4.079 0.051 1.318 0.142 2.64 0.284 3.952 0.738 1.038 1.49 2.058 2.259 3.079 1.291 1.179 2.594 2.349 3.943 3.468 2.491 1.446 4.928 2.997 7.426 4.445 0.983 0.656 1.959 1.342 2.93 2.044 0.245-0.031 0.747-0.082 0.991-0.112l0.051 0.627c1.968 1.156 3.901 2.386 5.897 3.49l0.098 0.529 0.88-0.178 0.046 0.894c0.26-0.031 0.798-0.082 1.058-0.112 0.342 0.291 1.027 0.872 1.373 1.163 0.849 0.454 1.729 0.901 2.619 1.333l0.051 0.649c0.32-0.046 0.962-0.133 1.283-0.179l0.067 0.632c1.454 0.843 2.885 1.723 4.325 2.603 0.843 0.529 1.721 1.053 2.603 1.542l0.051 0.218c1.321 0.722 2.625 1.49 3.93 2.268 0.327 0.224 0.991 0.656 1.327 0.871 1.053 0.619 2.096 1.251 3.148 1.887 1.774 1.043 3.505 2.162 5.295 3.205 1.267 0.774 2.528 1.588 3.728 2.476 0.172 0.016 0.498 0.036 0.665 0.052 1.216 1.013 2.564 1.851 3.989 2.564l0.082 0.23c2.237 1.261 4.43 2.603 6.592 3.997 1.49 0.894 2.99 1.79 4.406 2.812l0.692-0.006c0.357 0.321 1.068 0.946 1.415 1.261 0.971 0.56 1.908 1.133 2.885 1.708 1.766 1.104 3.534 2.207 5.337 3.273 0.858 0.524 1.738 1.053 2.633 1.551l0.021 0.605c0.351-0.052 1.058-0.172 1.415-0.224l-0.046 0.663c1.216 0.649 2.423 1.306 3.662 1.938l0.015 0.269c1.729 0.962 3.414 1.999 5.033 3.154 0.245 0 0.723 0.015 0.971 0.015l0.021 0.524c0.901 0.567 1.835 1.14 2.736 1.739l0.59-0.006c0.314 0.245 0.947 0.738 1.261 0.992l0.097 0.498c0.239-0.016 0.708-0.036 0.94-0.046 0.774 0.605 1.597 1.201 2.423 1.766 1.5 0.835 2.99 1.708 4.34 2.797 0.224-0.021 0.687-0.052 0.916-0.076l0.106 0.529c3.205 1.79 6.22 3.901 9.401 5.727 1.723 1.068 3.438 2.162 5.159 3.266 2.58 1.46 5.197 2.893 7.538 4.736 0.163 0 0.493 0.007 0.656 0.015 1.179 0.901 2.431 1.708 3.707 2.482 1.827 1.089 3.631 2.201 5.375 3.429l0.88-0.082c0.030 0.148 0.087 0.447 0.118 0.604 0.305 0.245 0.91 0.738 1.216 0.984l0.605-0.046c1.216 0.925 2.513 1.73 3.847 2.483 0.774 0.493 1.572 0.983 2.365 1.476 0.596 0.381 1.201 0.762 1.82 1.133 1.678 0.94 3.317 1.954 4.823 3.154 0.163-0.021 0.493-0.075 0.663-0.097 1.155 1.073 2.506 1.908 3.922 2.61l0.090 0.253c0.678 0.373 1.365 0.747 2.059 1.119 1.515 0.984 3.063 1.938 4.654 2.827 0.641 0.508 1.298 1.007 1.968 1.515 0.245-0.015 0.746-0.046 0.998-0.060l0.082 0.774 0.835-0.088 0.067 0.834c0.321-0.036 0.971-0.112 1.291-0.148l0.061 0.656c1.856 0.931 3.703 1.893 5.63 2.714 0.749 0.303 1.508 0.594 2.291 0.893zM573.435 286.341c-3.341-2.126-6.807-4.041-10.044-6.322-0.76-0.403-1.536-0.813-2.274-1.221-0.984-0.619-1.96-1.231-2.923-1.856-1.12-0.649-2.213-1.313-3.326-1.947l-0.142-0.524-0.605 0.106c-0.357-0.239-1.082-0.723-1.446-0.962-0.991-0.656-1.968-1.334-2.9-2.050-0.239 0.036-0.708 0.118-0.947 0.157l-0.082-0.619c-0.871-0.508-1.739-1.037-2.573-1.582-1.11-0.649-2.207-1.306-3.311-1.932l-0.082-0.254c-1.318-0.731-2.604-1.5-3.891-2.259-0.835-0.565-1.678-1.149-2.467-1.744-0.26 0.031-0.777 0.090-1.028 0.12l-0.021-0.886-0.874 0.118-0.015-0.872c-0.336 0.036-0.991 0.112-1.318 0.148l-0.158-0.925c-0.239 0-0.722 0.015-0.971 0.015-2.289-1.723-4.771-3.161-7.239-4.584l-0.112-0.209c-1.333-0.732-2.631-1.52-3.907-2.334-4.698-2.923-9.425-5.815-14.138-8.724-0.849-0.529-1.685-1.037-2.55-1.506l-0.046-0.23c-1.968-1.082-3.877-2.258-5.824-3.357-0.962-0.671-1.908-1.349-2.834-2.044-0.172-0.021-0.524-0.066-0.692-0.088-0.447-0.269-1.334-0.804-1.781-1.073l0.015-0.261c-0.865-0.457-1.7-0.916-2.534-1.394-2.116-1.387-4.288-2.691-6.449-4.012-2.171-1.394-4.339-2.803-6.643-3.967l-0.015-0.314c-0.789-0.351-1.567-0.708-2.325-1.068l-0.051-0.299c-1.551-0.88-3.063-1.82-4.63-2.655l-0.075-0.56c-0.229 0-0.701 0.007-0.94 0.015-2.111-1.587-4.378-2.952-6.643-4.294-0.344-0.229-1.038-0.692-1.387-0.932l-0.611 0.12-0.015-0.901c-0.314 0.021-0.947 0.075-1.267 0.098l-0.075-0.611c-0.791-0.373-1.572-0.753-2.341-1.134l-0.075-0.647c-0.314 0.046-0.947 0.118-1.261 0.163l0.015-0.663c-0.783-0.351-1.567-0.692-2.325-1.043l-0.036-0.417c-0.753-0.381-1.49-0.753-2.223-1.125-0.021-0.342-0.067-1.027-0.087-1.373 1.878-0.090 3.759-0.134 5.651-0.12 41.957 0.067 83.905-0.046 125.854 0.060 0.163 19.565 0.023 39.137 0.067 58.702-0.158 7.604 0.351 15.24-0.305 22.816-3.307-0.811-5.804-3.249-8.764-4.747z" horiz-adv-x="637" />
</font></defs></svg>